^C:\USERS\AARON\DOCUMENTS\JECKLESTATION\MULTIPAINT\MULTIPAINT\GUI\LOGINSCREEN.RESX|C:\USERS\AARON\DOCUMENTS\JECKLESTATION\MULTIPAINT\MULTIPAINT\GUI\MULTIPAINT.RESX|C:\USERS\AARON\DOCUMENTS\JECKLESTATION\MULTIPAINT\MULTIPAINT\PROPERTIES\RESOURCES.RESX
C:\USERS\AARON\DOCUMENTS\JECKLESTATION\MULTIPAINT\MULTIPAINT\OBJ\X86\DEBUG\MULTIPAINT.GUI.LOGINSCREEN.RESOURCES
C:\USERS\AARON\DOCUMENTS\JECKLESTATION\MULTIPAINT\MULTIPAINT\OBJ\X86\DEBUG\MULTIPAINT.MULTIPAINT.RESOURCES
C:\USERS\AARON\DOCUMENTS\JECKLESTATION\MULTIPAINT\MULTIPAINT\OBJ\X86\DEBUG\MULTIPAINT.PROPERTIES.RESOURCES.RESOURCES
